华南理工大学
…
## ── Attaching core tidyverse packages ──────────────────────── tidyverse 2.0.0 ──
## ✔ dplyr     1.1.4     ✔ readr     2.1.4
## ✔ forcats   1.0.0     ✔ stringr   1.5.0
## ✔ lubridate 1.9.3     ✔ tibble    3.2.1
## ✔ purrr     1.0.2     ✔ tidyr     1.3.0
## ── Conflicts ────────────────────────────────────────── tidyverse_conflicts() ──
## ✖ dplyr::filter() masks stats::filter()
## ✖ dplyr::lag()    masks stats::lag()
## ℹ Use the conflicted package (<http://conflicted.r-lib.org/>) to force all conflicts to become errors

nycflights13::flights->flights

print(flights)

## # A tibble: 336,776 × 19
##     year month   day dep_time sched_dep_time dep_delay arr_time sched_arr_time
##    <int> <int> <int>    <int>          <int>     <dbl>    <int>          <int>
##  1  2013     1     1      517            515         2      830            819
##  2  2013     1     1      533            529         4      850            830
##  3  2013     1     1      542            540         2      923            850
##  4  2013     1     1      544            545        -1     1004           1022
##  5  2013     1     1      554            600        -6      812            837
##  6  2013     1     1      554            558        -4      740            728
##  7  2013     1     1      555            600        -5      913            854
##  8  2013     1     1      557            600        -3      709            723
##  9  2013     1     1      557            600        -3      838            846
## 10  2013     1     1      558            600        -2      753            745
## # ℹ 336,766 more rows
## # ℹ 11 more variables: arr_delay <dbl>, carrier <chr>, flight <int>,
## #   tailnum <chr>, origin <chr>, dest <chr>, air_time <dbl>, distance <dbl>,
## #   hour <dbl>, minute <dbl>, time_hour <dttm>
…
flights%>%
  filter(.,month==1,day==2)

## # A tibble: 943 × 19
##     year month   day dep_time sched_dep_time dep_delay arr_time sched_arr_time
##    <int> <int> <int>    <int>          <int>     <dbl>    <int>          <int>
##  1  2013     1     2       42           2359        43      518            442
##  2  2013     1     2      126           2250       156      233           2359
##  3  2013     1     2      458            500        -2      703            650
##  4  2013     1     2      512            515        -3      809            819
##  5  2013     1     2      535            540        -5      831            850
##  6  2013     1     2      536            529         7      840            828
##  7  2013     1     2      539            545        -6      959           1022
##  8  2013     1     2      554            600        -6      845            901
##  9  2013     1     2      554            600        -6      841            851
## 10  2013     1     2      554            600        -6      909            858
## # ℹ 933 more rows
## # ℹ 11 more variables: arr_delay <dbl>, carrier <chr>, flight <int>,
## #   tailnum <chr>, origin <chr>, dest <chr>, air_time <dbl>, distance <dbl>,
## #   hour <dbl>, minute <dbl>, time_hour <dttm>
…
17.3 均方根误差

measure_distance <- function(mod, data){
  
  diff <- data$y - model1(mod,data)
  sqrt(mean(diff**2))
}

measure_distance(c(7,1.5),sim1)

## [1] 2.665212

17.4 利用purrr来计算模型和数据间的距离

## # A tibble: 250 × 3
##        a1     a2  dist
##     <dbl>  <dbl> <dbl>
##  1 -15.4  -2.83  48.6 
##  2  -8.19  3.68   6.19
##  3  27.8  -3.75  18.8 
##  4  20.3   3.87  26.7 
##  5  -8.94 -1.45  34.0 
##  6  39.7   2.82  39.8 
##  7   3.58 -3.85  37.3 
##  8 -13.6  -0.158 30.7 
##  9 -15.7   1.64  22.4 
## 10   7.72 -1.46  18.9 
## # ℹ 240 more rows
…
